{
  "META": {
    "parseme_version": "1.1",
    "parseme_json_version": "2.0",
    "filename_mapping": {
      "1": "test.cupt",
      "2": "train.cupt"
    }
  },
  "DECISIONS": {
    "MWE_KEY=[[1, 4406, [10, 11, 12]]]": {
      "type": "RE-ANNOT",
      "target_categ": "VID",
      "source_categ": "TODO",
      "source_mwe": [
        "baqgħet",
        "fis-",
        "seħħ"
      ]
    },
    "MWE_KEY=[[1, 218, [6, 7]]]": {
      "type": "RE-ANNOT",
      "target_categ": "MVC",
      "source_categ": "TODO",
      "source_mwe": [
        "baqa'",
        "sejjer"
      ]
    },
    "MWE_KEY=[[2, 1740, [26, 27]]]": {
      "type": "RE-ANNOT",
      "target_categ": "LVC.full",
      "source_categ": "TODO",
      "source_mwe": [
        "jibnu",
        "attakk"
      ]
    },
    "MWE_KEY=[[2, 5672, [39, 40]]]": {
      "type": "RE-ANNOT",
      "target_categ": "NotMWE",
      "source_categ": "TODO",
      "source_mwe": [
        "jibnilek",
        "karattru"
      ]
    },
    "MWE_KEY=[[2, 304, [21, 22, 23]]]": {
      "type": "RE-ANNOT",
      "target_categ": "VID",
      "source_categ": "TODO",
      "source_mwe": [
        "jibżgħu",
        "għal",
        "ħajja"
      ]
    },
    "MWE_KEY=[[2, 5579, [12, 13, 14]]]": {
      "type": "RE-ANNOT",
      "target_categ": "LVC.full",
      "source_categ": "TODO",
      "source_mwe": [
        "jidħol",
        "fi",
        "żwieġ"
      ]
    },
    "MWE_KEY=[[1, 332, [90, 91, 92]]]": {
      "type": "RE-ANNOT",
      "target_categ": "VID",
      "source_categ": "TODO",
      "source_mwe": [
        "jidħol",
        "fil-",
        "mertu"
      ]
    },
    "MWE_KEY=[[1, 45, [1, 2, 3]]]": {
      "type": "RE-ANNOT",
      "target_categ": "VID",
      "source_categ": "TODO",
      "source_mwe": [
        "daħal",
        "fix-",
        "xena"
      ]
    },
    "MWE_KEY=[[1, 4344, [14, 15, 16]]]": {
      "type": "RE-ANNOT",
      "target_categ": "VID",
      "source_categ": "TODO",
      "source_mwe": [
        "tfur",
        "minn",
        "ħdanu"
      ]
    },
    "MWE_KEY=[[2, 1819, [0, 1]]]": {
      "type": "RE-ANNOT",
      "target_categ": "NotMWE",
      "source_categ": "TODO",
      "source_mwe": [
        "Tifhmunix",
        "ħażin"
      ]
    },
    "MWE_KEY=[[1, 2308, [4, 5]]]": {
      "type": "RE-ANNOT",
      "target_categ": "NotMWE",
      "source_categ": "TODO",
      "source_mwe": [
        "fejn",
        "jidħol"
      ]
    },
    "MWE_KEY=[[1, 3098, [27, 28, 29]]]": {
      "type": "RE-ANNOT",
      "target_categ": "NotMWE",
      "source_categ": "TODO",
      "source_mwe": [
        "geżwirt",
        "f'",
        "qalbi"
      ]
    },
    "MWE_KEY=[[2, 5226, [5, 6]]]": {
      "type": "RE-ANNOT",
      "target_categ": "NotMWE",
      "source_categ": "TODO",
      "source_mwe": [
        "għad",
        "hemm"
      ]
    },
    "MWE_KEY=[[2, 491, [2, 3]]]": {
      "type": "RE-ANNOT",
      "target_categ": "VID",
      "source_categ": "TODO",
      "source_mwe": [
        "ngħid",
        "jien"
      ]
    },
    "MWE_KEY=[[1, 3783, [2, 3]]]": {
      "type": "RE-ANNOT",
      "target_categ": "VID",
      "source_categ": "TODO",
      "source_mwe": [
        "tgħidx",
        "kemm"
      ]
    },
    "MWE_KEY=[[2, 3464, [8, 9, 10]]]": {
      "type": "RE-ANNOT",
      "target_categ": "VID",
      "source_categ": "TODO",
      "source_mwe": [
        "għaddiet",
        "f'",
        "idejn"
      ]
    },
    "MWE_KEY=[[2, 2683, [12, 13, 14, 15, 16]]]": {
      "type": "RE-ANNOT",
      "target_categ": "VID",
      "source_categ": "TODO",
      "source_mwe": [
        "għadda",
        "mill-",
        "kliem",
        "għall-",
        "fatti"
      ]
    },
    "MWE_KEY=[[1, 4166, [4, 5]]]": {
      "type": "RE-ANNOT",
      "target_categ": "VID",
      "source_categ": "TODO",
      "source_mwe": [
        "għandha",
        "għalfejn"
      ]
    },
    "MWE_KEY=[[2, 4392, [4, 5, 6]]]": {
      "type": "RE-ANNOT",
      "target_categ": "VID",
      "source_categ": "TODO",
      "source_mwe": [
        "għandu",
        "quddiem",
        "għajnejh"
      ]
    },
    "MWE_KEY=[[1, 3482, [5, 6, 7]]]": {
      "type": "RE-ANNOT",
      "target_categ": "NotMWE",
      "source_categ": "TODO",
      "source_mwe": [
        "għandhom",
        "xejn",
        "inqas"
      ]
    },
    "MWE_KEY=[[2, 1952, [30, 31]]]": {
      "type": "RE-ANNOT",
      "target_categ": "LVC.full",
      "source_categ": "TODO",
      "source_mwe": [
        "hemm",
        "bżonn"
      ]
    },
    "MWE_KEY=[[2, 1969, [22, 23]]]": {
      "type": "RE-ANNOT",
      "target_categ": "LVC.full",
      "source_categ": "TODO",
      "source_mwe": [
        "hemm",
        "bżonn"
      ]
    },
    "MWE_KEY=[[2, 1488, [31, 32, 33]]]": {
      "type": "RE-ANNOT",
      "target_categ": "VID",
      "source_categ": "TODO",
      "source_mwe": [
        "hi",
        "eżempju",
        "ħaj"
      ]
    },
    "MWE_KEY=[[2, 1941, [1, 2, 3]]]": {
      "type": "RE-ANNOT",
      "target_categ": "VID",
      "source_categ": "TODO",
      "source_mwe": [
        "huma",
        "tal-",
        "fehma"
      ]
    },
    "MWE_KEY=[[2, 4542, [13, 14, 15, 16]]]": {
      "type": "RE-ANNOT",
      "target_categ": "NotMWE",
      "source_categ": "TODO",
      "source_mwe": [
        "id-",
        "dettalji",
        "għadhom",
        "dieħlin"
      ]
    },
    "MWE_KEY=[[1, 2939, [25, 26, 27, 28]]]": {
      "type": "RE-ANNOT",
      "target_categ": "NotMWE",
      "source_categ": "TODO",
      "source_mwe": [
        "il-",
        "qtugħ",
        "tad-",
        "dawl"
      ]
    },
    "MWE_KEY=[[2, 1594, [3, 4, 5, 6]]]": {
      "type": "RE-ANNOT",
      "target_categ": "VID",
      "source_categ": "TODO",
      "source_mwe": [
        "il-",
        "ħsieb",
        "hemm",
        "qiegħed"
      ]
    },
    "MWE_KEY=[[2, 4674, [11, 12, 13]]]": {
      "type": "RE-ANNOT",
      "target_categ": "VID",
      "source_categ": "TODO",
      "source_mwe": [
        "ilaħħqu",
        "mal-",
        "problemi"
      ]
    },
    "MWE_KEY=[[1, 1428, [0, 1, 2]]]": {
      "type": "RE-ANNOT",
      "target_categ": "VID",
      "source_categ": "TODO",
      "source_mwe": [
        "Infetħu",
        "l-",
        "kanuni"
      ]
    },
    "MWE_KEY=[[2, 4607, [3, 4]]]": {
      "type": "RE-ANNOT",
      "target_categ": "NotMWE",
      "source_categ": "TODO",
      "source_mwe": [
        "involvejt",
        "ruħi"
      ]
    },
    "MWE_KEY=[[2, 4861, [16, 17, 18]]]": {
      "type": "RE-ANNOT",
      "target_categ": "NotMWE",
      "source_categ": "TODO",
      "source_mwe": [
        "ipoġġu",
        "l-",
        "madum"
      ]
    },
    "MWE_KEY=[[1, 2211, [12, 13]]]": {
      "type": "RE-ANNOT",
      "target_categ": "IRV",
      "source_categ": "TODO",
      "source_mwe": [
        "iqis",
        "ruħu"
      ]
    },
    "MWE_KEY=[[2, 3269, [10, 11]]]": {
      "type": "RE-ANNOT",
      "target_categ": "VID",
      "source_categ": "TODO",
      "source_mwe": [
        "isemmgħu",
        "leħinhom"
      ]
    },
    "MWE_KEY=[[2, 4676, [10, 11, 12]]]": {
      "type": "RE-ANNOT",
      "target_categ": "NotMWE",
      "source_categ": "TODO",
      "source_mwe": [
        "isewwi",
        "l-",
        "periklu"
      ]
    },
    "MWE_KEY=[[1, 3146, [21, 22, 23]]]": {
      "type": "RE-ANNOT",
      "target_categ": "NotMWE",
      "source_categ": "TODO",
      "source_mwe": [
        "iċċaħħad",
        "id-",
        "dritt"
      ]
    },
    "MWE_KEY=[[2, 1632, [51, 52, 53]]]": {
      "type": "RE-ANNOT",
      "target_categ": "NotMWE",
      "source_categ": "TODO",
      "source_mwe": [
        "jekk",
        "tfittxuha",
        "issibuha"
      ]
    },
    "MWE_KEY=[[2, 3870, [19, 20]]]": {
      "type": "RE-ANNOT",
      "target_categ": "VID",
      "source_categ": "TODO",
      "source_mwe": [
        "jerfgħu",
        "qlubna"
      ]
    },
    "MWE_KEY=[[1, 4315, [1, 2, 3, 4]]]": {
      "type": "RE-ANNOT",
      "target_categ": "VID",
      "source_categ": "TODO",
      "source_mwe": [
        "jkolli",
        "x'",
        "naqsam",
        "miegħu"
      ]
    },
    "MWE_KEY=[[1, 502, [30, 31, 32]]]": {
      "type": "RE-ANNOT",
      "target_categ": "VID",
      "source_categ": "TODO",
      "source_mwe": [
        "kien",
        "bi",
        "ħsiebu"
      ]
    },
    "MWE_KEY=[[1, 4518, [5, 6, 7]]]": {
      "type": "RE-ANNOT",
      "target_categ": "NotMWE",
      "source_categ": "TODO",
      "source_mwe": [
        "kien",
        "fil-",
        "poter"
      ]
    },
    "MWE_KEY=[[2, 1173, [17, 18]]]": {
      "type": "RE-ANNOT",
      "target_categ": "VID",
      "source_categ": "TODO",
      "source_mwe": [
        "kienet",
        "iżżommilhom"
      ]
    },
    "MWE_KEY=[[1, 561, [4, 5, 6, 7]]]": {
      "type": "RE-ANNOT",
      "target_categ": "VID",
      "source_categ": "TODO",
      "source_mwe": [
        "kien",
        "maħnuq",
        "bin-",
        "nies"
      ]
    },
    "MWE_KEY=[[2, 4085, [35, 36, 37]]]": {
      "type": "RE-ANNOT",
      "target_categ": "NotMWE",
      "source_categ": "TODO",
      "source_mwe": [
        "kien",
        "u",
        "għadu"
      ]
    },
    "MWE_KEY=[[2, 2600, [8, 9, 10]]]": {
      "type": "RE-ANNOT",
      "target_categ": "VID",
      "source_categ": "TODO",
      "source_mwe": [
        "kiesaħ",
        "u",
        "biered"
      ]
    },
    "MWE_KEY=[[2, 1740, [49, 50, 51, 55]]]": {
      "type": "RE-ANNOT",
      "target_categ": "VID",
      "source_categ": "TODO",
      "source_mwe": [
        "nilqgħu",
        "l-",
        "pres",
        "sjoni"
      ]
    },
    "MWE_KEY=[[2, 4377, [9, 10, 11]]]": {
      "type": "RE-ANNOT",
      "target_categ": "VID",
      "source_categ": "TODO",
      "source_mwe": [
        "tolqot",
        "l-",
        "għajn"
      ]
    },
    "MWE_KEY=[[1, 1574, [4, 5, 6, 7]]]": {
      "type": "RE-ANNOT",
      "target_categ": "VID",
      "source_categ": "TODO",
      "source_mwe": [
        "m'",
        "għandux",
        "biex",
        "jiftaħar"
      ]
    },
    "MWE_KEY=[[1, 749, [2, 3, 4]]]": {
      "type": "RE-ANNOT",
      "target_categ": "NotMWE",
      "source_categ": "TODO",
      "source_mwe": [
        "ma",
        "jistax",
        "ikun"
      ]
    },
    "MWE_KEY=[[2, 5146, [30, 31, 32]]]": {
      "type": "RE-ANNOT",
      "target_categ": "NotMWE",
      "source_categ": "TODO",
      "source_mwe": [
        "ma",
        "sar",
        "xejn"
      ]
    },
    "MWE_KEY=[[2, 1810, [0, 1, 2]]]": {
      "type": "RE-ANNOT",
      "target_categ": "VID",
      "source_categ": "TODO",
      "source_mwe": [
        "Ma",
        "setax",
        "jonqos"
      ]
    },
    "MWE_KEY=[[2, 1890, [11, 12, 15, 16, 17]]]": {
      "type": "RE-ANNOT",
      "target_categ": "VID",
      "source_categ": "TODO",
      "source_mwe": [
        "mal-",
        "ħażin",
        "jeħel",
        "it-",
        "tajjeb"
      ]
    },
    "MWE_KEY=[[1, 306, [10, 11]]]": {
      "type": "RE-ANNOT",
      "target_categ": "VPC.full",
      "source_categ": "TODO",
      "source_mwe": [
        "tmur",
        "kontra"
      ]
    },
    "MWE_KEY=[[1, 3649, [68, 69]]]": {
      "type": "RE-ANNOT",
      "target_categ": "VPC.full",
      "source_categ": "TODO",
      "source_mwe": [
        "jmorru",
        "kontra"
      ]
    },
    "MWE_KEY=[[2, 4540, [20, 21, 22, 23, 24]]]": {
      "type": "RE-ANNOT",
      "target_categ": "VID",
      "source_categ": "TODO",
      "source_mwe": [
        "mhu",
        "se",
        "jerfa’",
        "xejn",
        "minnu"
      ]
    },
    "MWE_KEY=[[1, 4281, [0, 2]]]": {
      "type": "RE-ANNOT",
      "target_categ": "VID",
      "source_categ": "TODO",
      "source_mwe": [
        "Moħħha",
        "spiċċa"
      ]
    },
    "MWE_KEY=[[1, 2156, [6, 7, 8, 9, 10]]]": {
      "type": "RE-ANNOT",
      "target_categ": "NotMWE",
      "source_categ": "TODO",
      "source_mwe": [
        "naspira",
        "u",
        "nistenna",
        "li",
        "appena"
      ]
    },
    "MWE_KEY=[[1, 3104, [6, 7, 8, 9, 10]]]": {
      "type": "RE-ANNOT",
      "target_categ": "LVC.cause",
      "source_categ": "TODO",
      "source_mwe": [
        "ngħataw",
        "il-",
        "ħelsien",
        "mill-",
        "arrest"
      ]
    },
    "MWE_KEY=[[2, 1740, [42, 44, 45, 46]]]": {
      "type": "RE-ANNOT",
      "target_categ": "NotMWE",
      "source_categ": "TODO",
      "source_mwe": [
        "niffol",
        "law",
        "id-",
        "difiża"
      ]
    },
    "MWE_KEY=[[2, 3822, [0, 1]]]": {
      "type": "RE-ANNOT",
      "target_categ": "NotMWE",
      "source_categ": "TODO",
      "source_mwe": [
        "Niskuża",
        "ruħi"
      ]
    },
    "MWE_KEY=[[2, 5264, [34, 35, 36]]]": {
      "type": "RE-ANNOT",
      "target_categ": "VID",
      "source_categ": "TODO",
      "source_mwe": [
        "jinqatgħu",
        "l-",
        "kawżi"
      ]
    },
    "MWE_KEY=[[2, 4480, [6, 7, 8]]]": {
      "type": "RE-ANNOT",
      "target_categ": "NotMWE",
      "source_categ": "TODO",
      "source_mwe": [
        "ntalbu",
        "s-",
        "servizzi"
      ]
    },
    "MWE_KEY=[[1, 3030, [30, 31, 32]]]": {
      "type": "RE-ANNOT",
      "target_categ": "NotMWE",
      "source_categ": "TODO",
      "source_mwe": [
        "jintemmlu",
        "l-",
        "kuntratt"
      ]
    },
    "MWE_KEY=[[1, 3357, [4, 5, 6]]]": {
      "type": "RE-ANNOT",
      "target_categ": "VID",
      "source_categ": "TODO",
      "source_mwe": [
        "tintlaqa'",
        "t-",
        "talba"
      ]
    },
    "MWE_KEY=[[1, 3557, [32, 33, 34]]]": {
      "type": "RE-ANNOT",
      "target_categ": "NotMWE",
      "source_categ": "TODO",
      "source_mwe": [
        "nqabbdu",
        "fit-",
        "traffiku"
      ]
    },
    "MWE_KEY=[[2, 1711, [17, 18]]]": {
      "type": "RE-ANNOT",
      "target_categ": "NotMWE",
      "source_categ": "TODO",
      "source_mwe": [
        "joqogħdu",
        "attenti"
      ]
    },
    "MWE_KEY=[[1, 1792, [4, 5, 6, 7, 8]]]": {
      "type": "RE-ANNOT",
      "target_categ": "VID",
      "source_categ": "TODO",
      "source_mwe": [
        "iqumu",
        "jum",
        "wara",
        "l-",
        "ieħor"
      ]
    },
    "MWE_KEY=[[2, 1650, [34, 35]]]": {
      "type": "RE-ANNOT",
      "target_categ": "VID",
      "source_categ": "TODO",
      "source_mwe": [
        "iqum",
        "rebus"
      ]
    },
    "MWE_KEY=[[2, 2531, [1, 2, 3]]]": {
      "type": "RE-ANNOT",
      "target_categ": "NotMWE",
      "source_categ": "TODO",
      "source_mwe": [
        "Qatt",
        "ma",
        "bsart"
      ]
    },
    "MWE_KEY=[[2, 2716, [9, 17, 18]]]": {
      "type": "RE-ANNOT",
      "target_categ": "VID",
      "source_categ": "TODO",
      "source_mwe": [
        "qattusa",
        "tgħatti",
        "ħmieġha"
      ]
    },
    "MWE_KEY=[[2, 1925, [2, 3, 4]]]": {
      "type": "RE-ANNOT",
      "target_categ": "NotMWE",
      "source_categ": "TODO",
      "source_mwe": [
        "ara",
        "x’",
        "tagħmel"
      ]
    },
    "MWE_KEY=[[2, 1227, [11, 12]]]": {
      "type": "RE-ANNOT",
      "target_categ": "NotMWE",
      "source_categ": "TODO",
      "source_mwe": [
        "inrawmu",
        "fihom"
      ]
    },
    "MWE_KEY=[[2, 1740, [21, 22, 23]]]": {
      "type": "RE-ANNOT",
      "target_categ": "VID",
      "source_categ": "TODO",
      "source_mwe": [
        "rebħu",
        "l-",
        "inizjattiva"
      ]
    },
    "MWE_KEY=[[1, 3098, [2, 3]]]": {
      "type": "RE-ANNOT",
      "target_categ": "NotMWE",
      "source_categ": "TODO",
      "source_mwe": [
        "nerfa'",
        "jdejja"
      ]
    },
    "MWE_KEY=[[2, 5290, [18, 19, 20]]]": {
      "type": "RE-ANNOT",
      "target_categ": "VID",
      "source_categ": "TODO",
      "source_mwe": [
        "sabet",
        "it-",
        "triq"
      ]
    },
    "MWE_KEY=[[1, 572, [0, 1, 2]]]": {
      "type": "RE-ANNOT",
      "target_categ": "VID",
      "source_categ": "TODO",
      "source_mwe": [
        "Safejn",
        "naf",
        "jien"
      ]
    },
    "MWE_KEY=[[2, 1802, [0, 1]]]": {
      "type": "RE-ANNOT",
      "target_categ": "MVC",
      "source_categ": "TODO",
      "source_mwe": [
        "Tista'",
        "taħseb"
      ]
    },
    "MWE_KEY=[[2, 1745, [38, 39, 40]]]": {
      "type": "RE-ANNOT",
      "target_categ": "VID",
      "source_categ": "TODO",
      "source_mwe": [
        "stampa",
        "mal-",
        "wieqfa"
      ]
    },
    "MWE_KEY=[[1, 1933, [0, 1, 2]]]": {
      "type": "RE-ANNOT",
      "target_categ": "VID",
      "source_categ": "TODO",
      "source_mwe": [
        "Taw",
        "l-",
        "almu"
      ]
    },
    "MWE_KEY=[[2, 1809, [5, 6, 7, 8, 9, 10]]]": {
      "type": "RE-ANNOT",
      "target_categ": "VID",
      "source_categ": "TODO",
      "source_mwe": [
        "jagħti",
        "li",
        "hu",
        "tiegħu",
        "lil",
        "ħaddieħor"
      ]
    },
    "MWE_KEY=[[1, 710, [0, 1, 2]]]": {
      "type": "RE-ANNOT",
      "target_categ": "VID",
      "source_categ": "TODO",
      "source_mwe": [
        "Ta'",
        "min",
        "jgħid"
      ]
    },
    "MWE_KEY=[[2, 1597, [6, 8, 9, 10]]]": {
      "type": "RE-ANNOT",
      "target_categ": "VID",
      "source_categ": "TODO",
      "source_mwe": [
        "taj",
        "jar",
        "il-",
        "madmad"
      ]
    },
    "MWE_KEY=[[2, 5200, [0, 1, 2]]]": {
      "type": "RE-ANNOT",
      "target_categ": "VID",
      "source_categ": "TODO",
      "source_mwe": [
        "Tant",
        "hu",
        "hekk"
      ]
    },
    "MWE_KEY=[[1, 3171, [21, 22]]]": {
      "type": "RE-ANNOT",
      "target_categ": "VPC.full",
      "source_categ": "TODO",
      "source_mwe": [
        "taqa’",
        "taħtu"
      ]
    },
    "MWE_KEY=[[2, 1837, [37, 38, 39]]]": {
      "type": "RE-ANNOT",
      "target_categ": "VID",
      "source_categ": "TODO",
      "source_mwe": [
        "tara",
        "b'",
        "għajnejk"
      ]
    },
    "MWE_KEY=[[2, 5658, [14, 15, 16, 17]]]": {
      "type": "RE-ANNOT",
      "target_categ": "VID",
      "source_categ": "TODO",
      "source_mwe": [
        "tara",
        "x'",
        "se",
        "tagħmel"
      ]
    },
    "MWE_KEY=[[2, 3853, [11, 12, 13]]]": {
      "type": "RE-ANNOT",
      "target_categ": "NotMWE",
      "source_categ": "TODO",
      "source_mwe": [
        "jitla'",
        "u",
        "jinżel"
      ]
    },
    "MWE_KEY=[[1, 1965, [7, 8, 9]]]": {
      "type": "RE-ANNOT",
      "target_categ": "VID",
      "source_categ": "TODO",
      "source_mwe": [
        "intella'",
        "u",
        "nniżżel"
      ]
    },
    "MWE_KEY=[[2, 4659, [1, 2, 3]]]": {
      "type": "RE-ANNOT",
      "target_categ": "NotMWE",
      "source_categ": "TODO",
      "source_mwe": [
        "temm",
        "id-",
        "diskors"
      ]
    },
    "MWE_KEY=[[1, 2980, [15, 16]]]": {
      "type": "RE-ANNOT",
      "target_categ": "NotMWE",
      "source_categ": "TODO",
      "source_mwe": [
        "tista’",
        "tolqot"
      ]
    },
    "MWE_KEY=[[1, 3135, [6, 7]]]": {
      "type": "RE-ANNOT",
      "target_categ": "NotMWE",
      "source_categ": "TODO",
      "source_mwe": [
        "tisħaq",
        "snin"
      ]
    },
    "MWE_KEY=[[1, 2901, [21, 22, 23]]]": {
      "type": "RE-ANNOT",
      "target_categ": "VID",
      "source_categ": "TODO",
      "source_mwe": [
        "tixrid",
        "ta'",
        "dmija"
      ]
    },
    "MWE_KEY=[[2, 4902, [14, 15]]]": {
      "type": "RE-ANNOT",
      "target_categ": "LVC.full",
      "source_categ": "TODO",
      "source_mwe": [
        "tittieħed",
        "azzjoni"
      ]
    },
    "MWE_KEY=[[2, 4534, [2, 3, 4]]]": {
      "type": "RE-ANNOT",
      "target_categ": "NotMWE",
      "source_categ": "TODO",
      "source_mwe": [
        "twaqqa’",
        "l-",
        "vultaġġ"
      ]
    },
    "MWE_KEY=[[2, 4970, [16, 17, 18]]]": {
      "type": "RE-ANNOT",
      "target_categ": "VID",
      "source_categ": "TODO",
      "source_mwe": [
        "tħares",
        "bis-",
        "sħiħ"
      ]
    },
    "MWE_KEY=[[2, 4447, [18, 19, 20]]]": {
      "type": "RE-ANNOT",
      "target_categ": "VID",
      "source_categ": "TODO",
      "source_mwe": [
        "jaqgħux",
        "għat-",
        "tentazzjoni"
      ]
    },
    "MWE_KEY=[[2, 5316, [13, 14]]]": {
      "type": "RE-ANNOT",
      "target_categ": "VPC.full",
      "source_categ": "TODO",
      "source_mwe": [
        "waqa'",
        "lura"
      ]
    },
    "MWE_KEY=[[1, 4168, [35, 36, 38]]]": {
      "type": "RE-ANNOT",
      "target_categ": "VID",
      "source_categ": "TODO",
      "source_mwe": [
        "jaqgħu",
        "taħt",
        "responsabbilta'"
      ]
    },
    "MWE_KEY=[[2, 3057, [19, 20, 21]]]": {
      "type": "RE-ANNOT",
      "target_categ": "VID",
      "source_categ": "TODO",
      "source_mwe": [
        "jaqa'",
        "u",
        "jqum"
      ]
    },
    "MWE_KEY=[[2, 3464, [2, 3, 4]]]": {
      "type": "RE-ANNOT",
      "target_categ": "NotMWE",
      "source_categ": "TODO",
      "source_mwe": [
        "waqgħa",
        "tal-",
        "Imperu"
      ]
    },
    "MWE_KEY=[[2, 4660, [2, 3, 4]]]": {
      "type": "RE-ANNOT",
      "target_categ": "NotMWE",
      "source_categ": "TODO",
      "source_mwe": [
        "warrab",
        "il-",
        "wegħda"
      ]
    },
    "MWE_KEY=[[1, 150, [16, 17, 18]]]": {
      "type": "RE-ANNOT",
      "target_categ": "NotMWE",
      "source_categ": "TODO",
      "source_mwe": [
        "wasal",
        "iż-",
        "żmien"
      ]
    },
    "MWE_KEY=[[1, 4204, [7, 8, 9]]]": {
      "type": "RE-ANNOT",
      "target_categ": "NotMWE",
      "source_categ": "TODO",
      "source_mwe": [
        "wasal",
        "iż-",
        "żmien"
      ]
    },
    "MWE_KEY=[[2, 4584, [31, 32, 33]]]": {
      "type": "RE-ANNOT",
      "target_categ": "NotMWE",
      "source_categ": "TODO",
      "source_mwe": [
        "jasal",
        "iż-",
        "żmien"
      ]
    },
    "MWE_KEY=[[2, 1416, [5, 9, 10]]]": {
      "type": "RE-ANNOT",
      "target_categ": "NotMWE",
      "source_categ": "TODO",
      "source_mwe": [
        "weħlet",
        "xhur",
        "ħabs"
      ]
    },
    "MWE_KEY=[[1, 1057, [11, 12]]]": {
      "type": "RE-ANNOT",
      "target_categ": "VID",
      "source_categ": "TODO",
      "source_mwe": [
        "x'",
        "tagħmel"
      ]
    },
    "MWE_KEY=[[2, 1663, [37, 38]]]": {
      "type": "RE-ANNOT",
      "target_categ": "VID",
      "source_categ": "TODO",
      "source_mwe": [
        "x'",
        "tagħmel"
      ]
    },
    "MWE_KEY=[[1, 2914, [45, 46, 47, 48, 49]]]": {
      "type": "RE-ANNOT",
      "target_categ": "VID",
      "source_categ": "TODO",
      "source_mwe": [
        "xegħlet",
        "il-",
        "bozza",
        "l-",
        "ħamra"
      ]
    },
    "MWE_KEY=[[2, 2528, [0, 1]]]": {
      "type": "RE-ANNOT",
      "target_categ": "VID",
      "source_categ": "TODO",
      "source_mwe": [
        "X’",
        "differenza"
      ]
    },
    "MWE_KEY=[[2, 1918, [1, 2, 3, 4]]]": {
      "type": "RE-ANNOT",
      "target_categ": "VID",
      "source_categ": "TODO",
      "source_mwe": [
        "x’",
        "għandu",
        "x’",
        "jaqsam"
      ]
    },
    "MWE_KEY=[[2, 477, [3, 4, 5]]]": {
      "type": "RE-ANNOT",
      "target_categ": "VID",
      "source_categ": "TODO",
      "source_mwe": [
        "iġib",
        "fix-",
        "xejn"
      ]
    },
    "MWE_KEY=[[1, 353, [62, 63, 64]]]": {
      "type": "RE-ANNOT",
      "target_categ": "VID",
      "source_categ": "TODO",
      "source_mwe": [
        "ġibidlu",
        "l-",
        "attenzjoni"
      ]
    },
    "MWE_KEY=[[2, 4419, [7, 8, 9]]]": {
      "type": "RE-ANNOT",
      "target_categ": "NotMWE",
      "source_categ": "TODO",
      "source_mwe": [
        "ġejjin",
        "u",
        "ġejjin"
      ]
    },
    "MWE_KEY=[[1, 3043, [3, 4, 5]]]": {
      "type": "RE-ANNOT",
      "target_categ": "VID",
      "source_categ": "TODO",
      "source_mwe": [
        "ħallew",
        "il-",
        "marka"
      ]
    },
    "MWE_KEY=[[2, 4811, [7, 8]]]": {
      "type": "RE-ANNOT",
      "target_categ": "VID",
      "source_categ": "TODO",
      "source_mwe": [
        "jħalli",
        "warajh"
      ]
    },
    "MWE_KEY=[[1, 3695, [16, 17, 18]]]": {
      "type": "RE-ANNOT",
      "target_categ": "VID",
      "source_categ": "TODO",
      "source_mwe": [
        "jaħrab",
        "mill-",
        "fatt"
      ]
    },
    "MWE_KEY=[[1, 1398, [5, 6, 7]]]": {
      "type": "RE-ANNOT",
      "target_categ": "NotMWE",
      "source_categ": "TODO",
      "source_mwe": [
        "ħareġ",
        "b’",
        "bużullotta"
      ]
    },
    "MWE_KEY=[[1, 1828, [12, 13, 14, 15, 16]]]": {
      "type": "RE-ANNOT",
      "target_categ": "NotMWE",
      "source_categ": "TODO",
      "source_mwe": [
        "noħorġu",
        "lill-",
        "pajjiż",
        "mill-",
        "abbiss"
      ]
    },
    "MWE_KEY=[[1, 738, [11, 12]]]": {
      "type": "RE-ANNOT",
      "target_categ": "VID",
      "source_categ": "TODO",
      "source_mwe": [
        "ħarġet",
        "rebbieħa"
      ]
    },
    "MWE_KEY=[[2, 5416, [7, 8]]]": {
      "type": "RE-ANNOT",
      "target_categ": "VID",
      "source_categ": "TODO",
      "source_mwe": [
        "ħriġna",
        "rebbieħa"
      ]
    },
    "MWE_KEY=[[1, 3042, [31, 32]]]": {
      "type": "RE-ANNOT",
      "target_categ": "NotMWE",
      "source_categ": "TODO",
      "source_mwe": [
        "jħossu",
        "obligat"
      ]
    },
    "MWE_KEY=[[2, 494, [1, 7, 8, 9]]]": {
      "type": "RE-ANNOT",
      "target_categ": "VID",
      "source_categ": "TODO",
      "source_mwe": [
        "Ħlief",
        "ma",
        "kienx",
        "jagħmel"
      ]
    },
    "MWE_KEY=[[1, 1790, [14, 17, 18, 19]]]": {
      "type": "RE-ANNOT",
      "target_categ": "VID",
      "source_categ": "TODO",
      "source_mwe": [
        "iżommu",
        "fuq",
        "ix-",
        "xwiek"
      ]
    },
    "MWE_KEY=[[1, 791, [9, 19]]]": {
      "type": "RE-ANNOT",
      "target_categ": "VID",
      "source_categ": "TODO",
      "source_mwe": [
        "żżomm",
        "responsabbli"
      ]
    }
  }
}
